<?xml version="1.0" encoding="utf-8"?>
<!-- Generator: Adobe Illustrator 21.1.0, SVG Export Plug-In . SVG Version: 6.00 Build 0)  -->
<svg version="1.1" id="Layer_1" xmlns="http://www.w3.org/2000/svg" xmlns:xlink="http://www.w3.org/1999/xlink" x="0px" y="0px"
	 viewBox="0 0 94 94" style="enable-background:new 0 0 94 94;" xml:space="preserve">
<style type="text/css">
	.st0{fill:#505050;}
</style>
<path class="st0" d="M68.7,43.4L68.7,43.4c-3.6-2.9-3.7-5.2-3.9-8.4l-0.1-0.6c-0.3-4.6-2.7-6.7-4.9-6.7c-0.1,0-0.1,0-0.1,0
	c-0.3,0-0.9,0-1.6,0l0,0v-3.3c0-0.6-0.5-1.1-1.1-1.1c-0.6,0-1.1,0.5-1.1,1.1v3.3l0,0c-0.6,0-1.3,0-1.6,0c-0.1,0-0.1,0-0.1,0
	c-2.2,0-4.6,2.1-4.9,6.7L49.4,35c-0.1,1.3-0.1,2.4-0.4,3.4c-2.7-1.8-6-2.9-9.5-3l0,0V31c0-0.6-0.5-1.1-1.1-1.1
	c-0.6,0-1.1,0.5-1.1,1.1v4.5c-9.2,0.8-16.4,8.6-16.4,18c0,10,8.1,18.1,18.1,18.1c3.4,0,6.6-0.9,9.3-2.6c2.5,1.6,5.6,2.6,8.8,2.6
	c9.1,0,16.4-7.4,16.4-16.4C73.6,50.5,71.7,46.4,68.7,43.4z M39,69.4c-8.8,0-15.9-7.2-15.9-15.9c0-8.2,6.3-15,14.3-15.8v1
	c0,0.6,0.5,1.1,1.1,1.1c0.6,0,1.1-0.5,1.1-1.1v-1.1C48.2,37.9,55,44.9,55,53.5C54.9,62.2,47.8,69.4,39,69.4z M57.2,69.4
	c-2.5,0-4.8-0.6-6.8-1.7l0,0c4.2-3.3,6.8-8.4,6.8-14.2c0-5.4-2.4-10.3-6.2-13.6c0.5-1.5,0.6-3.1,0.7-4.7l0.1-0.6
	c0.2-3,1.5-4.6,2.7-4.6c0,0,0,0,0.1,0c0.5,0,1.7,0,2.7,0s2.2,0,2.7,0c0,0,0,0,0.1,0c1.2,0,2.5,1.6,2.7,4.6l0.1,0.6
	c0.2,3.5,0.4,6.5,4.7,10c2.5,2.6,4.1,6.1,4.1,10C71.4,62.9,65,69.4,57.2,69.4z M43.9,41.2c-0.1,0.1-1.1,2.9-5.4,2.9
	c-4.4,0-5.4-2.8-5.4-2.9c-0.2-0.6,0.1-1.2,0.7-1.4c0.6-0.2,1.2,0.1,1.4,0.7c0.1,0.1,0.6,1.5,3.4,1.5c2.7,0,3.3-1.4,3.4-1.5
	c0.2-0.5,0.8-0.8,1.4-0.6C43.8,40,44.1,40.6,43.9,41.2z M48.1,31.5c1.8-1.8,2.9-3.9,3.5-6.3c0.2-0.7,0.3-1.5,0.3-2.2
	c-0.7,0.1-1.5,0.2-2.2,0.3c-2.3,0.5-4.5,1.7-6.3,3.5c-1.8,1.8-2.9,3.9-3.5,6.3c-0.2,0.7-0.3,1.5-0.3,2.2c0.7-0.1,1.5-0.2,2.2-0.3
	C44.1,34.5,46.3,33.3,48.1,31.5z M44.9,28.5c1.2-1.2,2.6-2.1,4.2-2.6c-0.5,1.5-1.4,2.9-2.6,4.2c-1.2,1.2-2.6,2.1-4.2,2.6
	C42.9,31,43.7,29.6,44.9,28.5z"/>
</svg>
