<?xml version="1.0" encoding="utf-8"?>
<!-- Generator: Adobe Illustrator 21.1.0, SVG Export Plug-In . SVG Version: 6.00 Build 0)  -->
<svg version="1.1" id="Layer_1" xmlns="http://www.w3.org/2000/svg" xmlns:xlink="http://www.w3.org/1999/xlink" x="0px" y="0px"
	 viewBox="0 0 94 94" style="enable-background:new 0 0 94 94;" xml:space="preserve">
<style type="text/css">
	.st0{fill:#505050;}
</style>
<path class="st0" d="M75.8,38.7L49.2,27.3c-0.8-0.3-1.7-0.3-2.4,0L20.3,38.7c-1.5,0.6-2.2,2.3-1.5,3.8c0.3,0.7,0.8,1.2,1.5,1.4
	l5.9,2.5L24.4,47v18.5c0,0.8,0.7,1.4,1.5,1.4c0.8,0,1.5-0.6,1.5-1.4V48.8l20.7-7.4l-3.6-1.6L30,45l-8.6-3.7L48,30l26.6,11.4L48,52.7
	l-10.8-4.6l-4,1.4l13.6,5.7c0.8,0.3,1.7,0.3,2.4,0l13.6-5.7v8.9c-4.1,3.5-9.3,5.5-14.8,5.7C42.4,64,37.2,62,33.1,58.5v-8.9l-2.9,1v9
	l0.9,0.8c4.6,4.1,10.6,6.4,16.9,6.5c6.3-0.1,12.2-2.4,16.9-6.4l0.9-0.8V48.3L75.7,44c1.5-0.6,2.2-2.3,1.5-3.8
	c-0.3-0.7-0.8-1.2-1.5-1.4L75.8,38.7L75.8,38.7z"/>
</svg>
