<?xml version="1.0" encoding="utf-8"?>
<!-- Generator: Adobe Illustrator 21.1.0, SVG Export Plug-In . SVG Version: 6.00 Build 0)  -->
<svg version="1.1" id="Layer_1" xmlns="http://www.w3.org/2000/svg" xmlns:xlink="http://www.w3.org/1999/xlink" x="0px" y="0px"
	 viewBox="0 0 31.1 18.4" style="enable-background:new 0 0 31.1 18.4;" xml:space="preserve">
<style type="text/css">
	.st0{fill:#FF5943;}
</style>
<g>
	<polygon class="st0" points="28.3,0 15.6,12.7 2.8,0 0,2.8 12.7,15.6 15.6,18.4 18.4,15.6 31.1,2.8 	"/>
</g>
</svg>
