<?xml version="1.0" encoding="utf-8"?>
<!-- Generator: Adobe Illustrator 21.1.0, SVG Export Plug-In . SVG Version: 6.00 Build 0)  -->
<svg version="1.1" id="Layer_1" xmlns="http://www.w3.org/2000/svg" xmlns:xlink="http://www.w3.org/1999/xlink" x="0px" y="0px"
	 viewBox="0 0 74 70" style="enable-background:new 0 0 74 70;" xml:space="preserve">
<style type="text/css">
	.st0{fill:#4C4C4C;}
	.st1{fill:#4D4C4C;}
</style>
<g>
	<path class="st0" d="M31.4,39.3c1.6-1,3-2.7,3-4.9c0-3.4-2.4-5.7-6.2-5.7c-0.3,0-1,0-1.7,0c-0.6,0-1.3,0-1.5,0c-0.2,0-0.7,0-1.2,0
		c-0.6,0-1.2,0-1.6,0l-0.5,0v1.2l0.5,0c0.2,0,0.6,0.3,0.6,1.1l0,18.6c0,0.9-0.5,1.1-0.6,1.1h-0.5l0,1.2l0.5,0c0.3,0,1,0,1.7-0.1
		c0.6,0,1.2-0.1,1.4-0.1c0.2,0,0.9,0,1.6,0.1c0.8,0,1.6,0.1,2,0.1c4.1,0,7-2.9,7-7C35.9,42.4,34.3,40.4,31.4,39.3z M25.9,30.5
		c0.4-0.1,1-0.1,1.7-0.1c1.8,0,3.7,1.5,3.7,3.9c0,3-1.5,4.6-4.5,4.6c-0.3,0-0.6,0-0.9,0L25.9,30.5z M27.9,50.4
		C27.9,50.4,27.9,50.4,27.9,50.4c-0.7,0-1.5-0.1-2.1-0.2l0-9.6c0.5,0,1.2-0.1,1.6-0.1c4.6,0,5.1,3.3,5.1,4.7
		C32.6,47.6,31.8,50.4,27.9,50.4z"/>
	<path class="st0" d="M55.7,52.5L47,40.5c1.9-1.3,3.1-3.3,3.1-5.4c0-3.9-2.6-6.3-6.7-6.3c-0.3,0-1,0-1.7,0c-0.6,0-1.1,0-1.4,0
		c-0.2,0-0.7,0-1.3,0c-0.6,0-1.2,0-1.6,0l-0.5,0l0,1.2h0.5c0.1,0,0.6,0.3,0.6,1.1l0,18.6c0,0.9-0.4,1.1-0.6,1.1H37l0,1.2h0.5
		c0.3,0,0.8,0,1.2-0.1c0.4,0,0.7-0.1,1-0.1c0.2,0,0.5,0,0.9,0.1c0.4,0,0.9,0.1,1.2,0.1h0.5v-1.2h-0.5c-0.1,0-0.6-0.3-0.6-1.1l0-8.1
		c0.3,0,0.7,0,1.1,0c0.7,0,1.2,0,1.6-0.1c1.2,1.6,5.7,7.8,7.7,10.6l0.8,1.2c1.8,2.6,4.2,3.9,6.9,3.9l1.7,0l0-1.2h-0.5
		C59.4,56,57.6,55.4,55.7,52.5z M42.4,40c-0.5,0-0.9,0-1.1-0.1l0-9.3c0.3-0.1,0.8-0.3,1.5-0.3c2.1,0,4.3,1.8,4.3,4.9
		C47.2,38.3,45.4,40,42.4,40z"/>
	<path class="st0" d="M17.5,28.8c-0.4,0-0.7,0-1,0c-0.2,0-0.6,0-0.9,0c-0.4,0-0.9,0-1.2,0h-0.5l0,1.2h0.5c0.1,0,0.6,0.3,0.6,1.1
		l0,18.6c0,0.9-0.4,1.1-0.6,1.1h-0.5l0,1.2h0.5c0.3,0,0.8,0,1.2-0.1c0.4,0,0.7,0,0.9,0c0.2,0,0.6,0,1,0.1c0.4,0,0.9,0.1,1.2,0.1
		l0.5,0l0-1.2h-0.5c-0.1,0-0.6-0.3-0.6-1.1l0-18.6c0-0.9,0.4-1.1,0.6-1.1l0.5,0l0-1.2h-0.5C18.3,28.7,17.9,28.8,17.5,28.8z"/>
	<path class="st0" d="M73.5,50.9c-0.2,0-1.2-0.4-1.6-1.3l-9-21.2H62l-8.5,19.8l1.6,2.3l0-0.1c0.2-0.5,0.2-0.6,0.2-0.6l1.4-3.3
		l10.4,0l1.3,3.3l0,0c0.1,0.3,0.2,0.6,0.2,0.9c0,0.3-0.1,0.3-0.2,0.3H68l0,1.2h0.5c0.3,0,0.8,0,1.3-0.1c0.4,0,0.8-0.1,1.1-0.1
		c0.2,0,0.7,0,1.1,0.1c0.5,0,1.1,0.1,1.4,0.1l0.5,0l0-1.2H73.5z M57.7,44.2l4.3-10.3l4.2,10.3L57.7,44.2z"/>
	<path class="st0" d="M12.4,48.5c-0.3,0.5-0.7,1.3-2.4,1.3c-1.7,0-3.9,0-5.7-0.1c-0.1-0.8-0.1-2.1-0.1-5.2l0-13.5
		c0-0.8,0.4-1.1,0.6-1.1l0.5,0l0-1.2H4.9c-0.3,0-0.8,0-1.2,0c-0.4,0-0.7,0-0.9,0c-0.2,0-0.6,0-0.9,0c-0.4,0-0.9,0-1.2,0H0l0,1.2
		l0.5,0c0.2,0,0.6,0.3,0.6,1.1l0,18.6c0,0.8-0.4,1.1-0.6,1.1H0V52h0.5c0.8,0,1.8,0,2.9-0.1c0.9,0,2.1,0,2.7,0c0.6,0,0.9,0,1.9,0.1
		c1,0,2.1,0.1,2.9,0.1c2,0,2.3-1.3,2.7-3l0.1-0.4l-1-0.5L12.4,48.5z"/>
	<path class="st0" d="M53.9,26.8c3.9,0,7-3.1,7-7c0-3.9-3.1-7-7-7c0,0,0,0,0,0c-3.9,0-7,3.1-7,7C46.9,23.7,50,26.8,53.9,26.8z
		 M53.2,19.3c-0.1,0-0.2,0-0.2,0c-0.1,0-0.1-0.1-0.1-0.2c0-0.2,0.2-0.4,0.3-0.4c0,0,0.1,0,0.1,0c0.1,0,0.1,0,0.2,0.1
		c0.1,0,0.1,0.1,0.1,0.2C53.6,19,53.4,19.2,53.2,19.3z M56.3,17.8C56.4,17.8,56.4,17.8,56.3,17.8c0.1,0,0.2,0,0.2,0
		c0.1,0,0.1,0.1,0.1,0.2c0,0.2-0.2,0.4-0.3,0.4c-0.1,0-0.2,0-0.2,0c-0.1,0-0.1-0.1-0.1-0.2C56,18.1,56.2,17.9,56.3,17.8z M55.7,19.1
		l0-0.2l0.1-0.1l1.2-0.3l0,0l0.1-0.4l0.1-0.1l0.3-0.1l0,0l0,0l0,0l0,0l0,0l0,0.1l-0.1,0.4l0,0l1.1-0.3l0.1,0l0,0.1l0.1,0.9
		c0,0.1,0,0.3,0,0.4l0,0l0.1-0.4l0.4-1.1v0l0.1-0.1l0,0h0l0.3,0l0.1,0l0,0l0,0l-0.7,1.7l-0.1,0.2c-0.2,0.4-0.4,1-0.9,1.1
		c-0.2,0-0.4,0-0.4,0l0,0l0,0l0,0l0,0l0.1-0.3l0,0l0.1-0.1l0.1,0l0.2,0c0.1,0,0.2-0.1,0.3-0.2l0.1-0.2l-0.1,0l-0.1,0l0,0l-0.2-1.4
		l-0.8,0.2l-0.2,0.9l0,0.2l0,0.1l0.1,0c0.1,0,0.2-0.1,0.3-0.1l0.1,0l0.1,0l0.1,0.2l0,0v0v0c0,0.1-0.4,0.3-0.6,0.3
		c-0.2,0-0.3,0-0.4,0c-0.1-0.1-0.1-0.1-0.1-0.3c0-0.1,0-0.2,0-0.3l0.2-1l-0.6,0.1l-0.2,1.2l0.2-0.1l0.1,0l0,0l0,0.1l0,0.2l-0.1,0.1
		L56,20.7c-0.1,0-0.2,0-0.3,0l-0.1-0.1l0-0.2l0.2-1.1l-0.2,0L55.7,19.1L55.7,19.1L55.7,19.1z M55.1,19c0.1,0,0.1,0,0.2,0.1
		c0.1,0.1,0.1,0.2,0.1,0.3c0,0.1,0,0.2,0,0.3l-0.2,0.9l0.2,0l0.1,0l0,0l0,0l0,0.2l-0.1,0.1L55,20.9c-0.1,0-0.2,0-0.3,0l-0.1-0.1
		l0-0.1l0,0l0.2-0.8l0,0l0-0.2l0-0.1l-0.1,0c-0.2,0-0.4,0.3-0.5,0.8l-0.2,0.8L54,21.2l-0.3,0.1l-0.1,0l0,0l0,0l0,0l0.3-1.2l0,0
		l0-0.2l0,0l-0.2,0l-0.1,0l0,0l0,0l0-0.2l0.1-0.1l0.5-0.1l0,0c0,0,0.1,0.1,0.1,0.2l0,0.1l0,0C54.6,19.2,54.8,19,55.1,19
		C55.1,19,55.1,19,55.1,19z M53.9,13.9c0.6,0,1,0.5,1,1c0,0.6-0.5,1-1,1c-0.6,0-1-0.5-1-1C52.9,14.3,53.3,13.9,53.9,13.9z M50,20.6
		L50,20.6L50,20.6L50,20.6l0-0.3l0.1-0.1l0.2-0.1l0-0.1l0-0.1l0,0c0.1-0.3,0.2-0.7,0.7-0.8l0.4,0l0,0l0,0l-0.1,0.3l-0.1,0.1l-0.1,0
		l-0.2,0c-0.2,0-0.2,0.1-0.2,0.3l0,0v0l0,0.1l0.3-0.1l0.1,0l0,0.1l0,0c0-0.1,0.2-0.2,0.2-0.2l0.2,0l0-0.2c0.1-0.3,0.2-0.7,0.7-0.8
		h0.4l0,0l0,0l-0.1,0.3l-0.1,0.1h-0.1l-0.2,0c-0.2,0-0.2,0.1-0.2,0.3l0,0.1l1.2-0.3l0.1,0l0,0l0,0.1L53.1,21l0.2,0l0.1,0l0,0l0,0.1
		l0,0.2l-0.1,0.1l-0.3,0.1c-0.1,0-0.2,0-0.3,0l-0.1-0.1l0-0.2l0.2-1.1l-0.7,0.2l-0.3,1.6c-0.1,0.4-0.2,0.8-0.8,0.9
		c-0.3,0.1-0.3,0-0.3,0l0,0l0,0l0,0l0.1-0.3l0.1-0.1h0l0.1,0c0.2,0,0.3-0.2,0.3-0.5l0.3-1.5l-0.2,0h-0.1l-0.1-0.1l0,0
		c0,0,0,0.2-0.2,0.2l-0.3,0.1L50.5,22c-0.1,0.4-0.2,0.8-0.8,0.9c-0.3,0.1-0.3,0-0.3,0l0,0l0,0l0,0l0.1-0.3l0.1-0.1l0,0l0.1,0
		c0.2,0,0.3-0.2,0.3-0.5l0.3-1.5L50,20.6z M48.4,22.6c-0.1,0-0.2,0-0.3,0c-0.1-0.1-0.2-0.2-0.2-0.5c0-0.8,0.4-1.5,0.9-1.6
		c0.2,0,0.3,0,0.4,0.1l0,0l0,0l0,0l0,0l0.1-0.1l0.3-0.1l0,0l0,0l0,0.1l-0.2,1.2c0,0.1,0,0.2,0,0.2l0,0l0.2,0l0.1,0l0,0l0,0l0,0.2
		l-0.1,0.1l-0.2,0.1c-0.1,0-0.2,0-0.3,0L49,22.1l0-0.1l0,0C48.8,22.3,48.6,22.5,48.4,22.6z"/>
	<path class="st0" d="M49.1,20.9c-0.1,0-0.1-0.1-0.2-0.1c-0.3,0.1-0.4,0.7-0.4,1.1c0,0.1,0,0.2,0.1,0.2c0,0,0,0,0,0
		c0.3-0.1,0.4-0.5,0.4-0.6L49.1,20.9z"/>
</g>
</svg>
